tidymodels - Evaluating models
…
We can reliably measure performance using only the training data 🎉

Evaluating model performance

# Save the assessment set results
ctrl_rs <- control_resamples(save_pred = TRUE)
tree_res <- fit_resamples(tree_wflow, cell_rs, metrics = cls_metrics, control = ctrl_rs)

tree_preds <- collect_predictions(tree_res)
tree_preds
#> # A tibble: 1,615 × 7
#>    id     .pred_PS .pred_WS  .row .pred_class class .config             
#>    <chr>     <dbl>    <dbl> <int> <fct>       <fct> <chr>               
#>  1 Fold01    0.943   0.0566    10 PS          PS    Preprocessor1_Model1
#>  2 Fold01    0.943   0.0566    20 PS          PS    Preprocessor1_Model1
#>  3 Fold01    0.763   0.237     25 PS          PS    Preprocessor1_Model1
#>  4 Fold01    0.214   0.786     31 WS          PS    Preprocessor1_Model1
#>  5 Fold01    0.763   0.237     41 PS          PS    Preprocessor1_Model1
#>  6 Fold01    0.943   0.0566    48 PS          PS    Preprocessor1_Model1
#>  7 Fold01    0.943   0.0566    52 PS          PS    Preprocessor1_Model1
#>  8 Fold01    0.214   0.786     60 WS          PS    Preprocessor1_Model1
#>  9 Fold01    0.943   0.0566    61 PS          PS    Preprocessor1_Model1
#> 10 Fold01    0.214   0.786     91 WS          PS    Preprocessor1_Model1
#> # ℹ 1,605 more rows
…
Bootstrapping cell_tr

set.seed(3214)
bootstraps(cell_tr)
#> # Bootstrap sampling 
#> # A tibble: 25 × 2
#>    splits             id         
#>    <list>             <chr>      
#>  1 <split [1615/603]> Bootstrap01
#>  2 <split [1615/589]> Bootstrap02
#>  3 <split [1615/574]> Bootstrap03
#>  4 <split [1615/590]> Bootstrap04
#>  5 <split [1615/591]> Bootstrap05
#>  6 <split [1615/609]> Bootstrap06
#>  7 <split [1615/599]> Bootstrap07
#>  8 <split [1615/579]> Bootstrap08
#>  9 <split [1615/605]> Bootstrap09
#> 10 <split [1615/586]> Bootstrap10
#> # ℹ 15 more rows
…
