tidymodels - Tuning Hyperparameters
…
penalty()
#> Amount of Regularization (quantitative)
#> Transformer: log-10 [1e-100, Inf]
#> Range (transformed scale): [-10, 0]

Create a grid

set.seed(99)
glmn_grid <- 
  glmn_wflow %>% 
  extract_parameter_set_dials() %>% 
  grid_latin_hypercube(size = 25)

glmn_grid
#> # A tibble: 25 × 2
#>          penalty mixture
#>            <dbl>   <dbl>
#>  1 0.00000000644  0.544 
#>  2 0.000404       0.336 
#>  3 0.000832       0.691 
#>  4 0.0000000293   0.226 
#>  5 0.0114         0.836 
#>  6 0.855          0.120 
#>  7 0.00705        0.537 
#>  8 0.0000604      0.362 
#>  9 0.0000000216   0.0548
#> 10 0.0000320      0.290 
#> # ℹ 15 more rows
…
Update parameter ranges

set.seed(99)
glmn_grid <- 
  glmn_wflow %>% 
  extract_parameter_set_dials() %>% 
  update(penalty = penalty(c(-5, -1))) %>% 
  grid_latin_hypercube(size = 25)

glmn_grid
#> # A tibble: 25 × 2
#>      penalty mixture
#>        <dbl>   <dbl>
#>  1 0.0000529  0.544 
#>  2 0.00439    0.336 
#>  3 0.00586    0.691 
#>  4 0.0000970  0.226 
#>  5 0.0167     0.836 
#>  6 0.0939     0.120 
#>  7 0.0138     0.537 
#>  8 0.00205    0.362 
#>  9 0.0000858  0.0548
#> 10 0.00159    0.290 
#> # ℹ 15 more rows
…
Tuning results

collect_metrics(glmn_res)
#> # A tibble: 75 × 8
#>      penalty mixture .metric     .estimator  mean     n std_err .config         
#>        <dbl>   <dbl> <chr>       <chr>      <dbl> <int>   <dbl> <chr>           
#>  1 0.0000858  0.0548 brier_class binary     0.127    10 0.00310 Preprocessor1_M…
#>  2 0.0000858  0.0548 kap         binary     0.596    10 0.0137  Preprocessor1_M…
#>  3 0.0000858  0.0548 roc_auc     binary     0.892    10 0.00533 Preprocessor1_M…
#>  4 0.0939     0.120  brier_class binary     0.138    10 0.00322 Preprocessor1_M…
#>  5 0.0939     0.120  kap         binary     0.559    10 0.0157  Preprocessor1_M…
#>  6 0.0939     0.120  roc_auc     binary     0.875    10 0.00738 Preprocessor1_M…
#>  7 0.0376     0.152  brier_class binary     0.134    10 0.00332 Preprocessor1_M…
#>  8 0.0376     0.152  kap         binary     0.562    10 0.0122  Preprocessor1_M…
#>  9 0.0376     0.152  roc_auc     binary     0.880    10 0.00697 Preprocessor1_M…
#> 10 0.000793   0.180  brier_class binary     0.127    10 0.00309 Preprocessor1_M…
#> # ℹ 65 more rows

Tuning results

collect_metrics(glmn_res, summarize = FALSE)
#> # A tibble: 750 × 7
#>    id       penalty mixture .metric     .estimator .estimate .config            
#>    <chr>      <dbl>   <dbl> <chr>       <chr>          <dbl> <chr>              
#>  1 Fold01 0.0000858  0.0548 kap         binary         0.517 Preprocessor1_Mode…
#>  2 Fold01 0.0000858  0.0548 brier_class binary         0.143 Preprocessor1_Mode…
#>  3 Fold01 0.0000858  0.0548 roc_auc     binary         0.867 Preprocessor1_Mode…
#>  4 Fold02 0.0000858  0.0548 kap         binary         0.541 Preprocessor1_Mode…
#>  5 Fold02 0.0000858  0.0548 brier_class binary         0.130 Preprocessor1_Mode…
#>  6 Fold02 0.0000858  0.0548 roc_auc     binary         0.892 Preprocessor1_Mode…
#>  7 Fold03 0.0000858  0.0548 kap         binary         0.618 Preprocessor1_Mode…
#>  8 Fold03 0.0000858  0.0548 brier_class binary         0.118 Preprocessor1_Mode…
#>  9 Fold03 0.0000858  0.0548 roc_auc     binary         0.908 Preprocessor1_Mode…
#> 10 Fold04 0.0000858  0.0548 kap         binary         0.621 Preprocessor1_Mode…
#> # ℹ 740 more rows
…
collect_metrics(final_fit)
#> # A tibble: 3 × 4
#>   .metric     .estimator .estimate .config             
#>   <chr>       <chr>          <dbl> <chr>               
#> 1 kap         binary         0.615 Preprocessor1_Model1
#> 2 brier_class binary         0.123 Preprocessor1_Model1
#> 3 roc_auc     binary         0.902 Preprocessor1_Model1

These are metrics computed with the test set

Test set predictions

collect_predictions(final_fit)
#> # A tibble: 404 × 7
#>    id               .pred_PS .pred_WS  .row .pred_class class .config           
#>    <chr>               <dbl>    <dbl> <int> <fct>       <fct> <chr>             
#>  1 train/test split   0.994   0.00622     1 PS          PS    Preprocessor1_Mod…
#>  2 train/test split   0.0193  0.981       6 WS          WS    Preprocessor1_Mod…
#>  3 train/test split   0.0229  0.977       7 WS          WS    Preprocessor1_Mod…
#>  4 train/test split   0.617   0.383      10 PS          WS    Preprocessor1_Mod…
#>  5 train/test split   0.0146  0.985      11 WS          WS    Preprocessor1_Mod…
#>  6 train/test split   0.669   0.331      14 PS          PS    Preprocessor1_Mod…
#>  7 train/test split   0.0557  0.944      18 WS          WS    Preprocessor1_Mod…
#>  8 train/test split   0.995   0.00549    24 PS          PS    Preprocessor1_Mod…
#>  9 train/test split   0.979   0.0207     28 PS          PS    Preprocessor1_Mod…
#> 10 train/test split   0.981   0.0192     32 PS          WS    Preprocessor1_Mod…
#> # ℹ 394 more rows
…
